{
  "suggest.noselect": true,
  "languageserver": {
    "lua": {
      "command": "lua-lsp",
      "filetypes": ["lua"]
    }
  },
  "snippets.ultisnips.pythonPrompt": false,
  "git.enableGutters": false,
  "colors.enable": true,
  "git.enableGutters": false
}
